<?xml version="1.0"?>
<svg width="24" height="24" xmlns="http://www.w3.org/2000/svg" xmlns:svg="http://www.w3.org/2000/svg" xmlns:xlink="http://www.w3.org/1999/xlink" style="vector-effect: non-scaling-stroke;">
 <g class="layer">
  <title>Layer 1</title>
  <path d="m2,10.96c-0.5,-0.28 -0.65,-0.89 -0.37,-1.37l1.5,-2.59c0.11,-0.2 0.28,-0.34 0.47,-0.42l7.83,-4.4c0.16,-0.12 0.36,-0.18 0.57,-0.18c0.21,0 0.41,0.06 0.57,0.18l7.9,4.44c0.19,0.1 0.35,0.26 0.44,0.46l1.45,2.52c0.28,0.48 0.11,1.09 -0.36,1.36l-1,0.58l0,4.96c0,0.38 -0.21,0.71 -0.53,0.88l-7.9,4.44c-0.16,0.12 -0.36,0.18 -0.57,0.18c-0.21,0 -0.41,-0.06 -0.57,-0.18l-7.9,-4.44c-0.32,-0.17 -0.53,-0.5 -0.53,-0.88l0,-5.54c-0.3,0.17 -0.68,0.18 -1,0m10,-6.81l0,0l0,6.7l0,0l5.96,-3.35l-5.96,-3.35m-7,11.76l6,3.38l0,-6.71l-6,-3.37l0,6.7m14,0l0,-3.22l-5,2.9c-0.33,0.18 -0.7,0.17 -1,0.01l0,3.69l6,-3.38m-5.15,-2.55l6.28,-3.63l-0.58,-1.01l-6.28,3.63l0.58,1.01z" fill="black" id="svg_1"/>
  <g id="svg_4" style="vector-effect: non-scaling-stroke;"/>
  <use fill="#7f7f7f" id="svg_6" transform="matrix(0.270643 0 0 0.193057 28.7557 31.9757)" x="-88.851607" xlink:href="#svg_5" y="-103.680681"/>
  <g id="svg_7" style="vector-effect: non-scaling-stroke;"/>
 </g>
 <defs style="vector-effect: non-scaling-stroke;">
  <symbol height="24" id="svg_5" style="vector-effect: non-scaling-stroke;" viewBox="0 0 24 24" width="24" xmlns="http://www.w3.org/2000/svg" xmlns:xlink="http://www.w3.org/1999/xlink">
   <path d="m17,8.5l-4.75,3.82l4.75,3.68l0,-7.5m-12.3,9.9l-2.7,-1.7l0,-9l3,-1l4.3,3.33l8.7,-8.03l4,2.5l0,15.5l-5,2l-7.66,-7.34l-4.64,3.74m0.3,-4.4l1.86,-1.72l-1.86,-1.78l0,3.5z" style="vector-effect: non-scaling-stroke;"/>
  </symbol>
 </defs>
</svg>